…
注意一下你导入tidyverse包时给出的冲突信息（Conflicts），它告诉你dplyr覆盖了R基础包中的函数。如果你想要在载入tidyverse包后仍然使用这些函数，你需要使用函数的全名stats::filter()和stats::lag()进行调用。

nycflights13

我们将使用nycflights13::flights来探索dplyr包基本的数据操作动词。该数据集包含2013年336,776次航班起飞数据，来自美国交通统计局。

flights
## # A tibble: 336,776 x 19
##     year month   day dep_time sched_dep_time dep_delay arr_time
##    <int> <int> <int>    <int>          <int>     <dbl>    <int>
##  1  2013     1     1      517            515      2.00      830
##  2  2013     1     1      533            529      4.00      850
##  3  2013     1     1      542            540      2.00      923
##  4  2013     1     1      544            545     -1.00     1004
##  5  2013     1     1      554            600     -6.00      812
##  6  2013     1     1      554            558     -4.00      740
##  7  2013     1     1      555            600     -5.00      913
##  8  2013     1     1      557            600     -3.00      709
##  9  2013     1     1      557            600     -3.00      838
## 10  2013     1     1      558            600     -2.00      753
## # ... with 336,766 more rows, and 12 more variables: sched_arr_time <int>,
## #   arr_delay <dbl>, carrier <chr>, flight <int>, tailnum <chr>,
## #   origin <chr>, dest <chr>, air_time <dbl>, distance <dbl>, hour <dbl>,
## #   minute <dbl>, time_hour <dttm>
…
随后的参数描述了使用变量名（不加引号）对数据框做什么

结果是一个新的数据框

这些属性一起便利地将多个简单步骤串联起来得到一个复杂的操作（结果）。让我们实际来看看这些动词是怎么工作的。

使用filter()过滤行

filter()允许我们根据观测值来对数据集取子集。第一个参数是数据框的名字，第二和随后的参数是用于过滤数据框的表达式。

比如，我们可以选择所有一月一号的航班：

filter(flights, month == 1, day == 1)
## # A tibble: 842 x 19
##     year month   day dep_time sched_dep_time dep_delay arr_time
##    <int> <int> <int>    <int>          <int>     <dbl>    <int>
##  1  2013     1     1      517            515      2.00      830
##  2  2013     1     1      533            529      4.00      850
##  3  2013     1     1      542            540      2.00      923
##  4  2013     1     1      544            545     -1.00     1004
##  5  2013     1     1      554            600     -6.00      812
##  6  2013     1     1      554            558     -4.00      740
##  7  2013     1     1      555            600     -5.00      913
##  8  2013     1     1      557            600     -3.00      709
##  9  2013     1     1      557            600     -3.00      838
## 10  2013     1     1      558            600     -2.00      753
## # ... with 832 more rows, and 12 more variables: sched_arr_time <int>,
## #   arr_delay <dbl>, carrier <chr>, flight <int>, tailnum <chr>,
## #   origin <chr>, dest <chr>, air_time <dbl>, distance <dbl>, hour <dbl>,
## #   minute <dbl>, time_hour <dttm>

这一行代码dplyr执行了过滤操作并返回了一个新的数据框。dplyr从不修改输入数据，所以如果你想要保存数据，必须使用<-进行赋值：

jan1 <- filter(flights, month == 1, day == 1)

R要么输出结果，要么将结果保存到一个变量。如果我们想要同时做到这一点，你可以把赋值放在括号里：

(dec25 <- filter(flights, month == 12, day == 25))
## # A tibble: 719 x 19
##     year month   day dep_time sched_dep_time dep_delay arr_time
##    <int> <int> <int>    <int>          <int>     <dbl>    <int>
##  1  2013    12    25      456            500     -4.00      649
##  2  2013    12    25      524            515      9.00      805
##  3  2013    12    25      542            540      2.00      832
##  4  2013    12    25      546            550     -4.00     1022
##  5  2013    12    25      556            600     -4.00      730
##  6  2013    12    25      557            600     -3.00      743
##  7  2013    12    25      557            600     -3.00      818
##  8  2013    12    25      559            600     -1.00      855
##  9  2013    12    25      559            600     -1.00      849
## 10  2013    12    25      600            600      0         850
## # ... with 709 more rows, and 12 more variables: sched_arr_time <int>,
## #   arr_delay <dbl>, carrier <chr>, flight <int>, tailnum <chr>,
## #   origin <chr>, dest <chr>, air_time <dbl>, distance <dbl>, hour <dbl>,
## #   minute <dbl>, time_hour <dttm>
…
另一个你在使用==时可能遭遇的常见问题是浮点数。下面的结果可能会让你惊掉大牙：

sqrt(2) ^ 2 == 2
## [1] FALSE
1/49 * 49 == 1
## [1] FALSE

逻辑操作符

&是与，|是或，!是非。

下面代码找到在十一月或十二月起飞的所有航班：

filter(flights, month == 11 | month == 12)
## # A tibble: 55,403 x 19
##     year month   day dep_time sched_dep_time dep_delay arr_time
##    <int> <int> <int>    <int>          <int>     <dbl>    <int>
##  1  2013    11     1        5           2359      6.00      352
##  2  2013    11     1       35           2250    105         123
##  3  2013    11     1      455            500   -  5.00      641
##  4  2013    11     1      539            545   -  6.00      856
##  5  2013    11     1      542            545   -  3.00      831
##  6  2013    11     1      549            600   - 11.0       912
##  7  2013    11     1      550            600   - 10.0       705
##  8  2013    11     1      554            600   -  6.00      659
##  9  2013    11     1      554            600   -  6.00      826
## 10  2013    11     1      554            600   -  6.00      749
## # ... with 55,393 more rows, and 12 more variables: sched_arr_time <int>,
## #   arr_delay <dbl>, carrier <chr>, flight <int>, tailnum <chr>,
## #   origin <chr>, dest <chr>, air_time <dbl>, distance <dbl>, hour <dbl>,
## #   minute <dbl>, time_hour <dttm>
…
