…
注意一下你导入tidyverse包时给出的冲突信息（Conflicts），它告诉你dplyr覆盖了R基础包中的函数。如果你想要在载入tidyverse包后仍然使用这些函数，你需要使用函数的全名stats::filter()和stats::lag()进行调用。

nycflights13

我们将使用nycflights13::flights来探索dplyr包基本的数据操作动词。该数据集包含2013年336,776次航班起飞数据，来自美国交通统计局。

flights
## # A tibble: 336,776 x 19
##     year month   day dep_t~ sched_~ dep_d~ arr_~ sched~ arr_d~ carr~ flig~
##    <int> <int> <int>  <int>   <int>  <dbl> <int>  <int>  <dbl> <chr> <int>
##  1  2013     1     1    517     515   2.00   830    819  11.0  UA     1545
##  2  2013     1     1    533     529   4.00   850    830  20.0  UA     1714
##  3  2013     1     1    542     540   2.00   923    850  33.0  AA     1141
##  4  2013     1     1    544     545  -1.00  1004   1022 -18.0  B6      725
##  5  2013     1     1    554     600  -6.00   812    837 -25.0  DL      461
##  6  2013     1     1    554     558  -4.00   740    728  12.0  UA     1696
##  7  2013     1     1    555     600  -5.00   913    854  19.0  B6      507
##  8  2013     1     1    557     600  -3.00   709    723 -14.0  EV     5708
##  9  2013     1     1    557     600  -3.00   838    846 - 8.00 B6       79
## 10  2013     1     1    558     600  -2.00   753    745   8.00 AA      301
## # ... with 336,766 more rows, and 8 more variables: tailnum <chr>, origin
## #   <chr>, dest <chr>, air_time <dbl>, distance <dbl>, hour <dbl>, minute
## #   <dbl>, time_hour <dttm>
…
随后的参数描述了使用变量名（不加引号）对数据框做什么

结果是一个新的数据框

这些属性一起便利地将多个简单步骤串联起来得到一个复杂的操作（结果）。让我们实际来看看这些动词是怎么工作的。

使用filter()过滤行

filter()允许我们根据观测值来对数据集取子集。第一个参数是数据框的名字，第二和随后的参数是用于过滤数据框的表达式。

比如，我们可以选择所有一月一号的航班：

filter(flights, month == 1, day == 1)
## # A tibble: 842 x 19
##     year month   day dep_t~ sched_~ dep_d~ arr_~ sched~ arr_d~ carr~ flig~
##    <int> <int> <int>  <int>   <int>  <dbl> <int>  <int>  <dbl> <chr> <int>
##  1  2013     1     1    517     515   2.00   830    819  11.0  UA     1545
##  2  2013     1     1    533     529   4.00   850    830  20.0  UA     1714
##  3  2013     1     1    542     540   2.00   923    850  33.0  AA     1141
##  4  2013     1     1    544     545  -1.00  1004   1022 -18.0  B6      725
##  5  2013     1     1    554     600  -6.00   812    837 -25.0  DL      461
##  6  2013     1     1    554     558  -4.00   740    728  12.0  UA     1696
##  7  2013     1     1    555     600  -5.00   913    854  19.0  B6      507
##  8  2013     1     1    557     600  -3.00   709    723 -14.0  EV     5708
##  9  2013     1     1    557     600  -3.00   838    846 - 8.00 B6       79
## 10  2013     1     1    558     600  -2.00   753    745   8.00 AA      301
## # ... with 832 more rows, and 8 more variables: tailnum <chr>, origin
## #   <chr>, dest <chr>, air_time <dbl>, distance <dbl>, hour <dbl>, minute
## #   <dbl>, time_hour <dttm>

这一行代码dplyr执行了过滤操作并返回了一个新的数据框。dplyr从不修改输入数据，所以如果你想要保存数据，必须使用<-进行赋值：

jan1 <- filter(flights, month == 1, day == 1)

R要么输出结果，要么将结果保存到一个变量。如果我们想要同时做到这一点，你可以把赋值放在括号里：

(dec25 <- filter(flights, month == 12, day == 25))
## # A tibble: 719 x 19
##     year month   day dep_t~ sched_~ dep_d~ arr_~ sched~ arr_d~ carr~ flig~
##    <int> <int> <int>  <int>   <int>  <dbl> <int>  <int>  <dbl> <chr> <int>
##  1  2013    12    25    456     500  -4.00   649    651 - 2.00 US     1895
##  2  2013    12    25    524     515   9.00   805    814 - 9.00 UA     1016
##  3  2013    12    25    542     540   2.00   832    850 -18.0  AA     2243
##  4  2013    12    25    546     550  -4.00  1022   1027 - 5.00 B6      939
##  5  2013    12    25    556     600  -4.00   730    745 -15.0  AA      301
##  6  2013    12    25    557     600  -3.00   743    752 - 9.00 DL      731
##  7  2013    12    25    557     600  -3.00   818    831 -13.0  DL      904
##  8  2013    12    25    559     600  -1.00   855    856 - 1.00 B6      371
##  9  2013    12    25    559     600  -1.00   849    855 - 6.00 B6      605
## 10  2013    12    25    600     600   0      850    846   4.00 B6      583
## # ... with 709 more rows, and 8 more variables: tailnum <chr>, origin
## #   <chr>, dest <chr>, air_time <dbl>, distance <dbl>, hour <dbl>, minute
## #   <dbl>, time_hour <dttm>
…
另一个你在使用==时可能遭遇的常见问题是浮点数。下面的结果可能会让你惊掉大牙：

sqrt(2) ^ 2 == 2
## [1] FALSE
1/49 * 49 == 1
## [1] FALSE

逻辑操作符

&是与，|是或，!是非。

下面代码找到在十一月或十二月起飞的所有航班：

filter(flights, month == 11 | month == 12)
## # A tibble: 55,403 x 19
##     year month   day dep_t~ sched~ dep_del~ arr_~ sche~ arr_d~ carr~ flig~
##    <int> <int> <int>  <int>  <int>    <dbl> <int> <int>  <dbl> <chr> <int>
##  1  2013    11     1      5   2359     6.00   352   345   7.00 B6      745
##  2  2013    11     1     35   2250   105      123  2356  87.0  B6     1816
##  3  2013    11     1    455    500  -  5.00   641   651 -10.0  US     1895
##  4  2013    11     1    539    545  -  6.00   856   827  29.0  UA     1714
##  5  2013    11     1    542    545  -  3.00   831   855 -24.0  AA     2243
##  6  2013    11     1    549    600  - 11.0    912   923 -11.0  UA      303
##  7  2013    11     1    550    600  - 10.0    705   659   6.00 US     2167
##  8  2013    11     1    554    600  -  6.00   659   701 - 2.00 US     2134
##  9  2013    11     1    554    600  -  6.00   826   827 - 1.00 DL      563
## 10  2013    11     1    554    600  -  6.00   749   751 - 2.00 DL      731
## # ... with 55,393 more rows, and 8 more variables: tailnum <chr>, origin
## #   <chr>, dest <chr>, air_time <dbl>, distance <dbl>, hour <dbl>, minute
## #   <dbl>, time_hour <dttm>
…
